[
  {
    "no": 1,
    "Category": "Chinese",
    "unit": "Num of Partisipants",
    "Value": 79,
    "color": "#f17b79"
  },
  {
    "no": 2,
    "Category": "Japanese",
    "unit": "Num of Partisipants",
    "Value": 5,
    "color": "#f17b79"
  },
  {
    "no": 3,
    "Category": "Malaysian",
    "unit": "Num of Partisipants",
    "Value": 15,
    "color": "#f17b79"
  },
  {
    "no": 4,
    "Category": "Indian",
    "unit": "Num of Partisipants",
    "Value": 1,
    "color": "#f17b79"
  },
  {
    "no": 5,
    "Category": "Others",
    "unit": "Num of Partisipants",
    "Value": 5,
    "color": "#f17b79"
  }
]